module github.com/mfinelli/cui

go 1.21.1

require (
	github.com/alecthomas/chroma/v2 v2.8.0
	github.com/gdamore/tcell/v2 v2.6.0
	github.com/gorilla/mux v1.8.0
	github.com/rivo/tview v0.0.0-20230907055643-aef151e35335
)

require (
	github.com/dlclark/regexp2 v1.10.0 // indirect
	github.com/gdamore/encoding v1.0.0 // indirect
	github.com/lucasb-eyer/go-colorful v1.2.0 // indirect
	github.com/mattn/go-runewidth v0.0.15 // indirect
	github.com/rivo/uniseg v0.4.4 // indirect
	golang.org/x/sys v0.12.0 // indirect
	golang.org/x/term v0.12.0 // indirect
	golang.org/x/text v0.13.0 // indirect
)
